…
When you group by a column, R splits your data into separate datasets behind the scenes, and when you use `summarize()`, it calculates summary statistics (averages, counts, medians, etc.) for each of those groups. So when you used `group_by(intake_type, intake_month)`, R made smaller datasets of Owner Surrender in January, Stray in January, Wildlife in January, Owner Surrender in February, and so on. Then when you used `summarize(total = n())`, you calculated the number of rows in each of those groups, thus giving you the number of animals per intake type per month. That’s basic `group_by() |> summarize()` stuff.

Once you have a count of animals per intakee type per monthh, you have to decide how you want to calculate proportions. In particular, you need to figure out what your denominator is. Do you want the proportion of all animals within each intake type per month (e.g. X% of animals in January are owner surrender, Y% in January are strays, and Z% in January are wildlife), so that each month constitutes 100%? Do you want the proportion of months for each intake type (e.g. X% of owner surrenders happen in January, Y% of owner surrenders happen in February, and so on until 100% of the owner surrenders are accounted for). *This* is where the second `group_by()` matters.

For example, if you group by intake type and then use mutate to calculate the proportion, the proportion in each intake type will add up to 100%. Notice the denominator column here—it’s unique to each intake type (2323 for owner surrenders, 19911 for strays, etc.). **This means you can say things like "10.3% of owner surrenders happened in February."**

```{.r}
animals |>
  group_by(intake_type, intake_month) |>
  summarize(total = n()) |>
  group_by(intake_type) |>
  mutate(denominator = sum(total),
         proportion = total / denominator)
#> # A tibble: 36 × 5
#> # Groups:   intake_type [3]
#>    intake_type     intake_month total denominator proportion
#>    <chr>           <ord>        <int>       <int>      <dbl>
#>  1 Owner Surrender January        196        2323     0.0844
#>  2 Owner Surrender February       240        2323     0.103 
#>  3 Owner Surrender March          254        2323     0.109 
#>  4 Owner Surrender April          189        2323     0.0814
#>  5 Owner Surrender May            206        2323     0.0887
#>  6 Owner Surrender June           190        2323     0.0818
#>  7 Owner Surrender July           165        2323     0.0710
#>  8 Owner Surrender August         214        2323     0.0921
#>  9 Owner Surrender September      175        2323     0.0753
#> 10 Owner Surrender October        167        2323     0.0719
#> 11 Owner Surrender November       157        2323     0.0676
#> 12 Owner Surrender December       170        2323     0.0732
#> 13 Stray           January       1124       19911     0.0565
#> 14 Stray           February      1097       19911     0.0551
#> # ℹ 22 more rows
```

If you group by month for the second grouping instead, the proportion within each month will add to 100%. Notice how the denominator for January is 1521 (196 owner surrenders, 1124 strays, and 201 wildlife), February is 1541, and so on. **This means you can say things like "73.9% of animals in January are strays."**

```{.r}
animals |>
  group_by(intake_month, intake_type) |>
  summarize(total = n()) |>
  group_by(intake_month) |>
  mutate(denominator = sum(total),
         proportion = total / denominator)
#> # A tibble: 36 × 5
#> # Groups:   intake_month [12]
#>    intake_month intake_type     total denominator proportion
#>    <ord>        <chr>           <int>       <int>      <dbl>
#>  1 January      Owner Surrender   196        1521     0.129 
#>  2 January      Stray            1124        1521     0.739 
#>  3 January      Wildlife          201        1521     0.132 
#>  4 February     Owner Surrender   240        1541     0.156 
#>  5 February     Stray            1097        1541     0.712 
#>  6 February     Wildlife          204        1541     0.132 
#>  7 March        Owner Surrender   254        2017     0.126 
#>  8 March        Stray            1325        2017     0.657 
#>  9 March        Wildlife          438        2017     0.217 
#> 10 April        Owner Surrender   189        2419     0.0781
#> # ℹ 26 more rows
```

You can also ungroup completely before calculating the proportion. This makes it so the entire proportion column adds to 100%. **This means you can say things like "4.15% of all animals were strays taken in in February."**

```{.r}
animals |>
  group_by(intake_month, intake_type) |>
  summarize(total = n()) |>
  ungroup() |>
  mutate(denominator = sum(total),
         proportion = total / denominator) 
#> # A tibble: 36 × 5
#>    intake_month intake_type     total denominator proportion
#>    <ord>        <chr>           <int>       <int>      <dbl>
#>  1 January      Owner Surrender   196       26413    0.00742
#>  2 January      Stray            1124       26413    0.0426 
#>  3 January      Wildlife          201       26413    0.00761
#>  4 February     Owner Surrender   240       26413    0.00909
#>  5 February     Stray            1097       26413    0.0415 
#>  6 February     Wildlife          204       26413    0.00772
#>  7 March        Owner Surrender   254       26413    0.00962
#>  8 March        Stray            1325       26413    0.0502 
#>  9 March        Wildlife          438       26413    0.0166 
#> 10 April        Owner Surrender   189       26413    0.00716
#> # ℹ 26 more rows
```
…
